3:16:34:Dealer1:Auto:AU9650940(Body:BD4506090,Motor:MT6838548,Accessory:AC5132561)
3:16:35:Dealer2:Auto:AU4565170(Body:BD4057622,Motor:MT5305974,Accessory:AC8986387)
3:16:35:Dealer3:Auto:AU3776369(Body:BD3616921,Motor:MT3562194,Accessory:AC3854575)
3:16:36:Dealer2:Auto:AU5529204(Body:BD9284221,Motor:MT5805685,Accessory:AC2780083)
3:16:36:Dealer3:Auto:AU5716571(Body:BD5787861,Motor:MT8568187,Accessory:AC1770772)
3:16:37:Dealer1:Auto:AU9269884(Body:BD1174349,Motor:MT9040883,Accessory:AC4291071)
3:16:37:Dealer3:Auto:AU9726371(Body:BD1247797,Motor:MT5649728,Accessory:AC5671975)
3:16:38:Dealer1:Auto:AU3701851(Body:BD6145541,Motor:MT8376939,Accessory:AC9859898)
3:16:38:Dealer3:Auto:AU2460851(Body:BD2408862,Motor:MT2427506,Accessory:AC8492368)
3:16:39:Dealer1:Auto:AU3794493(Body:BD4857484,Motor:MT1636645,Accessory:AC6447766)
3:16:39:Dealer3:Auto:AU6645066(Body:BD6171270,Motor:MT2056223,Accessory:AC8203321)
3:16:40:Dealer1:Auto:AU8726766(Body:BD4964458,Motor:MT4164377,Accessory:AC5506697)
3:16:40:Dealer3:Auto:AU6767618(Body:BD3251587,Motor:MT9846342,Accessory:AC4389527)
3:16:41:Dealer1:Auto:AU7741916(Body:BD3473999,Motor:MT2855504,Accessory:AC6343535)
3:16:41:Dealer3:Auto:AU8183192(Body:BD8211366,Motor:MT3241534,Accessory:AC7767885)
3:16:42:Dealer1:Auto:AU3111682(Body:BD7208018,Motor:MT5276154,Accessory:AC1704467)
3:16:42:Dealer3:Auto:AU4567384(Body:BD4372874,Motor:MT1790121,Accessory:AC9699721)
3:16:43:Dealer1:Auto:AU4731107(Body:BD8840510,Motor:MT5115618,Accessory:AC3031156)
3:16:43:Dealer3:Auto:AU2136089(Body:BD7609943,Motor:MT9190962,Accessory:AC6786897)
3:16:44:Dealer1:Auto:AU1603762(Body:BD9635865,Motor:MT9546148,Accessory:AC5560939)
3:16:44:Dealer3:Auto:AU9773425(Body:BD6466215,Motor:MT3245774,Accessory:AC4978133)
3:16:45:Dealer1:Auto:AU3521805(Body:BD6722630,Motor:MT5243023,Accessory:AC4749381)
3:16:45:Dealer3:Auto:AU9587229(Body:BD6698941,Motor:MT7666717,Accessory:AC7249659)
3:16:46:Dealer1:Auto:AU9196516(Body:BD2304860,Motor:MT7653350,Accessory:AC2129449)
3:16:46:Dealer3:Auto:AU7526733(Body:BD9558691,Motor:MT5287957,Accessory:AC8365884)
3:16:47:Dealer1:Auto:AU3035758(Body:BD8809688,Motor:MT5390146,Accessory:AC1659998)
3:16:47:Dealer3:Auto:AU9673543(Body:BD9215285,Motor:MT3401700,Accessory:AC5742488)
3:16:48:Dealer1:Auto:AU7547266(Body:BD9949399,Motor:MT4008649,Accessory:AC8887140)
3:16:48:Dealer3:Auto:AU9237234(Body:BD9724251,Motor:MT6298309,Accessory:AC2793121)
3:16:49:Dealer1:Auto:AU3377942(Body:BD3304895,Motor:MT1558418,Accessory:AC2466202)
3:16:49:Dealer3:Auto:AU1285396(Body:BD6113517,Motor:MT4397539,Accessory:AC6121953)
3:16:50:Dealer1:Auto:AU6339712(Body:BD3453224,Motor:MT2990615,Accessory:AC6086512)
3:16:50:Dealer3:Auto:AU4600212(Body:BD4477975,Motor:MT7207168,Accessory:AC1266265)
3:16:51:Dealer1:Auto:AU4072176(Body:BD8704784,Motor:MT6001133,Accessory:AC8932012)
3:16:51:Dealer3:Auto:AU7346989(Body:BD9923709,Motor:MT3442077,Accessory:AC5973062)
3:16:52:Dealer1:Auto:AU4257908(Body:BD9628192,Motor:MT1341898,Accessory:AC7671210)
3:16:52:Dealer3:Auto:AU6857176(Body:BD3882906,Motor:MT1525596,Accessory:AC1635274)
3:16:53:Dealer1:Auto:AU8985980(Body:BD8323768,Motor:MT9559497,Accessory:AC4123970)
3:16:53:Dealer3:Auto:AU9953236(Body:BD7930604,Motor:MT2139852,Accessory:AC3372264)
3:16:54:Dealer1:Auto:AU2779752(Body:BD5795968,Motor:MT6967525,Accessory:AC2683423)
3:16:54:Dealer1:Auto:AU7040721(Body:BD7322603,Motor:MT3767247,Accessory:AC6429314)
3:16:55:Dealer3:Auto:AU3004169(Body:BD5828199,Motor:MT6168441,Accessory:AC9800314)
3:16:56:Dealer1:Auto:AU9360529(Body:BD6361102,Motor:MT7198649,Accessory:AC6053164)
3:16:56:Dealer3:Auto:AU7639044(Body:BD4943895,Motor:MT3126642,Accessory:AC8391700)
3:16:57:Dealer1:Auto:AU3429177(Body:BD1452719,Motor:MT1529297,Accessory:AC2053362)
3:16:58:Dealer3:Auto:AU7500648(Body:BD4583866,Motor:MT9076861,Accessory:AC4917080)
3:16:59:Dealer1:Auto:AU9935726(Body:BD2817290,Motor:MT9606100,Accessory:AC7731280)
3:16:59:Dealer3:Auto:AU5413147(Body:BD9086065,Motor:MT5965432,Accessory:AC5715904)
3:17:0:Dealer1:Auto:AU9576548(Body:BD8098659,Motor:MT7752473,Accessory:AC4283631)
3:17:1:Dealer3:Auto:AU4506894(Body:BD7313111,Motor:MT2616882,Accessory:AC8798116)
3:17:2:Dealer1:Auto:AU5710259(Body:BD4312069,Motor:MT5266678,Accessory:AC8218744)
3:17:2:Dealer3:Auto:AU3708870(Body:BD1564350,Motor:MT9969036,Accessory:AC3925630)
3:17:3:Dealer1:Auto:AU3369834(Body:BD8819718,Motor:MT6190830,Accessory:AC3796494)
3:17:4:Dealer3:Auto:AU5345013(Body:BD1650300,Motor:MT3049415,Accessory:AC3912408)
3:17:5:Dealer1:Auto:AU4728481(Body:BD8870990,Motor:MT5250102,Accessory:AC6980029)
3:17:6:Dealer3:Auto:AU4549376(Body:BD6635457,Motor:MT8333626,Accessory:AC6836773)
3:17:6:Dealer1:Auto:AU9001325(Body:BD4628208,Motor:MT8235088,Accessory:AC1468623)
3:17:7:Dealer3:Auto:AU6223642(Body:BD5734198,Motor:MT6344992,Accessory:AC5363962)
3:17:8:Dealer1:Auto:AU2895646(Body:BD8304355,Motor:MT8537675,Accessory:AC4355204)
3:17:9:Dealer3:Auto:AU7538113(Body:BD7364552,Motor:MT4996295,Accessory:AC5781070)
3:17:9:Dealer1:Auto:AU1348851(Body:BD3683736,Motor:MT3108995,Accessory:AC8769805)
3:17:10:Dealer3:Auto:AU1880296(Body:BD9391762,Motor:MT1410520,Accessory:AC6277859)
3:17:11:Dealer1:Auto:AU1411013(Body:BD7742116,Motor:MT5946083,Accessory:AC2687134)
3:17:12:Dealer3:Auto:AU4511340(Body:BD3204227,Motor:MT7047616,Accessory:AC4748033)
3:17:12:Dealer1:Auto:AU7540410(Body:BD3658087,Motor:MT8026549,Accessory:AC5584240)
3:17:13:Dealer3:Auto:AU8389375(Body:BD1759094,Motor:MT4186956,Accessory:AC3296430)
3:17:14:Dealer1:Auto:AU7366121(Body:BD3668410,Motor:MT5165288,Accessory:AC7977741)
3:17:15:Dealer3:Auto:AU4814610(Body:BD5501589,Motor:MT4166205,Accessory:AC1333371)
3:17:16:Dealer1:Auto:AU8493881(Body:BD9072875,Motor:MT8355504,Accessory:AC7890543)
