desc
1 = replace abracadabra cadabraabra
2 = grep braab
3 = sort
0 = readfile true1.txt
5 = writefile true11.txt
csed
0 -> 1 -> 2 -> 3 -> 5
desc
1 = replace samasi ilidan
2 = grep ili
3 = sort
0 = readfile true2.txt
5 = writefile true22.txt
csed
0 -> 1 -> 2 -> 3 -> 5
desc
3 = sort
2 = grep braab
1 = replace abracadabra cadabraabra
0 = readfile true3.txt
5 = writefile true33.txt
csed
0 -> 1 -> 2 -> 3 -> 5
desc
1 = sort
0 = readfile true4.txt
5 = writefile true44.txt
csed
0 -> 1 -> 5